{
	"node":3,
	"manager":3,
	"worker":0,
	"container":{
	  "versa_api":{
	    "exec_cmd":"ls -ltr"
	  },
	  "versa_shop2":{
	    "exec_cmd":"curl -Is https://versa.dev.contus.us/shop/ | head -1"
	  },
	  "versa_shop3":{
	    "exec_cmd":"curl -Is https://versa.dev.contus.us/shop/ | head -1"
	  },
	  "kafka_broker1":{
	  	"exec_cmd":"/opt/kafka/bin/kafka-topics.sh --list --zookeeper zookeeper1:2181,zookeeper2:2181,zookeeper3:2181"
	  },
	  "kafka_broker2":{
	    "exec_cmd":"/opt/kafka/bin/kafka-topics.sh --list --zookeeper zookeeper1:2181,zookeeper2:2181,zookeeper3:2181"
	  }
	},
	"service":{
		"helloworld":{
			"replicas":3
		},
		"kafka_broker3":{
			"replicas" : 1
		},
		"kafka_zookeeper3":{
			"replicas" : 1
		},
		"versa_nodesocket2":{
			"replicas" : 1
		},
		"kafka_broker2":{
			"replicas" : 1
		},
		"versa_shop1":{
			"replicas" : 1
		},
		"versa_shop2":{
			"replicas" : 1
		},
		"versa_nodesocket1":{
			"replicas" : 1
		},
		"kafka_broker1":{
			"replicas" : 1
		},
		"versa_dashboard":{
			"replicas" : 1
		},
		"versa_shop3":{
			"replicas" : 1
		},
		"kafka_zookeeper2":{
			"replicas" : 1
		},
		"versa_haproxy":{
			"replicas" : "None"
		},
		"kafka_zookeeper1":{
			"replicas" : 1
		},
		"versa_streamprocessor":{
			"replicas" : 1
		},
		"versa_api":{
			"replicas" : 1
		}
	},
	"hostname":"192.168.4.224",
	"port":"2376",
	"container_check":1,
	"service_check":1,
	"custom_command_run":0,
	"mail":{
		"notification":1,
		"sender_email":"balasubramanian.j@contus.in",
		"email_subject":"Docker monitor status",
		"receivers_email":["parthipan.j@contus.in", "balasubramanian.j@contus.in"],
		"sender_password":"password",
		"smtp_host":"smtp.gmail.com",
		"smtp_port":587
	},
	"logging":{
		"enable":1,
		"type":"console",
		"file_name":"/var/log/doc_monitor"
	}
}